<svg xmlns="http://www.w3.org/2000/svg" viewBox="0 0 217.109 217.109">
  <path d="M108.552 0C62.42 0 24.89 37.535 24.89 83.672c0 32.967 13.802 66.314 39.914 96.437 19.503 22.498 38.83 35.245 39.645 35.777 1.245.815 2.674 1.222 4.103 1.222 1.428 0 2.857-.408 4.104-1.223.813-.532 20.144-13.28 39.647-35.777 26.114-30.124 39.917-63.47 39.917-96.438C192.22 37.535 154.687 0 108.553 0zm0 200.4C93.165 188.934 39.89 144.806 39.89 83.672 39.89 45.806 70.69 15 108.552 15c37.864 0 68.668 30.806 68.668 68.672 0 61.134-53.28 105.262-68.668 116.728z"/>
  <path d="M108.557 50.45c-18.31 0-33.206 14.896-33.206 33.208 0 18.307 14.897 33.2 33.207 33.2 18.31 0 33.205-14.893 33.205-33.2 0-18.31-14.896-33.21-33.205-33.21zm0 51.41c-10.04 0-18.206-8.166-18.206-18.202 0-10.04 8.168-18.21 18.207-18.21 10.038 0 18.205 8.17 18.205 18.21 0 10.036-8.167 18.2-18.205 18.2z"/>
</svg>